edu\ib\memoryeegsoftware\clientApp\MainView.class
edu\ib\memoryeegsoftware\clientApp\util\ApiUtils.class
edu\ib\memoryeegsoftware\clientApp\controller\MainOptionsViewController.class
edu\ib\memoryeegsoftware\clientApp\entity\EdfFile.class
edu\ib\memoryeegsoftware\clientApp\util\BoardUtils.class
edu\ib\memoryeegsoftware\clientApp\entity\Marker.class
edu\ib\memoryeegsoftware\clientApp\util\CalculatorUtils.class
edu\ib\memoryeegsoftware\clientApp\util\FXMLUtils.class
edu\ib\memoryeegsoftware\clientApp\entity\MarkerCode.class
edu\ib\memoryeegsoftware\clientApp\controller\DigitSpanTaskViewController.class
edu\ib\memoryeegsoftware\clientApp\controller\CustomTestViewController.class
module-info.class
edu\ib\memoryeegsoftware\clientApp\entity\MarkerFile.class
edu\ib\memoryeegsoftware\clientApp\stringsManager\AlertTitles.class
edu\ib\memoryeegsoftware\clientApp\util\ResponsiveLayoutUtils.class
edu\ib\memoryeegsoftware\clientApp\stringsManager\InstructionMessages.class
edu\ib\memoryeegsoftware\clientApp\controller\DigitSpanTaskViewController$1SendToDatabase.class
edu\ib\memoryeegsoftware\clientApp\util\EdfConverterUtils.class
edu\ib\memoryeegsoftware\clientApp\controller\admin\MainOptionsViewAdminController.class
edu\ib\memoryeegsoftware\clientApp\controller\admin\AddPersonAdminViewController.class
edu\ib\memoryeegsoftware\clientApp\controller\PatientDataFormController.class
edu\ib\memoryeegsoftware\clientApp\util\AlertTemplate.class
edu\ib\memoryeegsoftware\clientApp\controller\MainViewController.class
edu\ib\memoryeegsoftware\clientApp\controller\CheckConnectionController.class
edu\ib\memoryeegsoftware\clientApp\stringsManager\AlertMessages.class
edu\ib\memoryeegsoftware\clientApp\util\LayoutUtils.class
